<svg width="161" height="214" viewBox="0 0 161 214" version="1.1" xmlns="http://www.w3.org/2000/svg" xmlns:xlink="http://www.w3.org/1999/xlink">
<title>icon-no-region</title>
<desc>Created using Figma</desc>
<g id="Canvas" transform="translate(-2764 67)">
<g id="icon-no-region">
<g id="Group">
<g id="Group">
<g id="Vector">
<use xlink:href="#path0_fill" transform="translate(2764 -67)" fill="#E0E0E0"/>
<mask id="mask0_outline_ins">
<use xlink:href="#path0_fill" fill="white" transform="translate(2764 -67)"/>
</mask>
<g mask="url(#mask0_outline_ins)">
<use xlink:href="#path1_stroke_2x" transform="translate(2764 -67)" fill="#FFFFFF"/>
</g>
</g>
</g>
</g>
<g id="Group">
<g id="Group">
<g id="Vector">
<use xlink:href="#path2_fill" transform="translate(2820.33 -24.5314)" fill="#E0E0E0"/>
<mask id="mask1_outline_ins">
<use xlink:href="#path2_fill" fill="white" transform="translate(2820.33 -24.5314)"/>
</mask>
<g mask="url(#mask1_outline_ins)">
<use xlink:href="#path3_stroke_2x" transform="translate(2820.33 -24.5314)" fill="#FFFFFF"/>
</g>
</g>
</g>
</g>
</g>
</g>
<defs>
<path id="path0_fill" d="M 160.491 206.462L 132.195 146.784C 131.63 145.594 130.652 144.681 129.478 144.183L 115.401 137.935L 139.793 97.1757C 139.851 97.0779 139.906 96.9788 139.959 96.8777C 144.808 87.4404 147.267 77.2424 147.267 66.5687C 147.267 48.6132 140.205 31.7799 127.382 19.1702C 114.56 6.56345 97.5747 -0.245677 79.5548 0.00677618C 62.0534 0.24878 45.5749 7.2577 33.154 19.7433C 20.7343 32.228 13.8374 48.7139 13.7334 66.1654C 13.6697 76.8298 16.1972 87.4496 21.0408 96.8773C 21.0928 96.978 21.1477 97.0775 21.2059 97.1753L 45.5975 137.934L 31.439 144.217C 30.2807 144.73 29.3458 145.641 28.8042 146.784L 0.508457 206.462C -0.438549 208.458 -0.0390373 210.831 1.50954 212.41C 3.0577 213.989 5.42711 214.441 7.45066 213.543L 42.8986 197.808L 78.3466 213.543C 79.7179 214.151 81.2836 214.151 82.6549 213.543L 118.103 197.808L 153.551 213.543C 154.243 213.85 154.977 214 155.703 214C 157.1 214 158.474 213.449 159.492 212.41C 161.039 210.831 161.438 208.459 160.491 206.462ZM 30.3926 91.9139C 26.3137 83.9173 24.2725 75.2767 24.3266 66.2285C 24.506 35.9554 49.3478 10.9856 79.7023 10.5663C 94.8637 10.3632 109.158 16.0831 119.944 26.6899C 130.734 37.2992 136.675 51.4616 136.675 66.5691C 136.675 75.4965 134.634 84.0222 130.608 91.9139L 85.0486 168.046C 83.6576 170.37 81.4048 170.621 80.5005 170.621C 79.5959 170.621 77.343 170.37 75.9525 168.046L 30.3926 91.9139ZM 120.256 187.204C 118.885 186.596 117.319 186.596 115.948 187.204L 80.4997 202.939L 45.0517 187.204C 43.6805 186.596 42.1147 186.596 40.7435 187.204L 16.1867 198.105L 37.5407 153.069L 51.0637 147.069L 66.8547 173.457C 69.7489 178.293 74.8499 181.181 80.4989 181.181C 86.1478 181.181 91.2488 178.293 94.143 173.457L 109.934 147.069L 123.458 153.072L 144.811 198.105L 120.256 187.204Z"/>
<path id="path1_stroke_2x" d="M 160.491 206.462L 159.136 207.105L 159.136 207.105L 160.491 206.462ZM 132.195 146.784L 133.55 146.142L 133.55 146.142L 132.195 146.784ZM 129.478 144.183L 128.87 145.554L 128.881 145.559L 128.892 145.564L 129.478 144.183ZM 115.401 137.935L 114.114 137.165L 113.244 138.619L 114.792 139.306L 115.401 137.935ZM 139.793 97.1757L 141.08 97.946L 141.082 97.9434L 139.793 97.1757ZM 139.959 96.8777L 141.291 97.5677L 141.293 97.5633L 139.959 96.8777ZM 127.382 19.1702L 128.433 18.1007L 128.433 18.1007L 127.382 19.1702ZM 79.5548 0.00677618L 79.5755 1.50663L 79.5758 1.50663L 79.5548 0.00677618ZM 33.154 19.7433L 32.0906 18.6854L 32.0906 18.6854L 33.154 19.7433ZM 13.7334 66.1654L 15.2334 66.1743L 15.2334 66.1743L 13.7334 66.1654ZM 21.0408 96.8773L 19.7066 97.5627L 19.7078 97.5652L 21.0408 96.8773ZM 21.2059 97.1753L 19.9173 97.943L 19.9188 97.9455L 21.2059 97.1753ZM 45.5975 137.934L 46.2059 139.305L 47.7548 138.618L 46.8847 137.164L 45.5975 137.934ZM 31.439 144.217L 32.0471 145.588L 32.0474 145.588L 31.439 144.217ZM 28.8042 146.784L 30.1596 147.427L 30.1597 147.426L 28.8042 146.784ZM 0.508457 206.462L 1.86364 207.105L 1.86383 207.105L 0.508457 206.462ZM 1.50954 212.41L 2.5805 211.36L 2.58036 211.36L 1.50954 212.41ZM 7.45066 213.543L 8.05898 214.914L 8.05923 214.914L 7.45066 213.543ZM 42.8986 197.808L 43.5072 196.437L 42.8986 196.167L 42.2901 196.437L 42.8986 197.808ZM 78.3466 213.543L 77.738 214.914L 77.7385 214.914L 78.3466 213.543ZM 82.6549 213.543L 83.263 214.914L 83.2635 214.914L 82.6549 213.543ZM 118.103 197.808L 118.711 196.437L 118.103 196.167L 117.494 196.437L 118.103 197.808ZM 153.551 213.543L 152.942 214.914L 152.943 214.914L 153.551 213.543ZM 159.492 212.41L 160.563 213.461L 160.563 213.46L 159.492 212.41ZM 30.3926 91.9139L 29.0564 92.5955L 29.0795 92.6406L 29.1055 92.6842L 30.3926 91.9139ZM 24.3266 66.2285L 25.8265 66.2374L 25.8265 66.2374L 24.3266 66.2285ZM 79.7023 10.5663L 79.6823 9.06647L 79.6816 9.06648L 79.7023 10.5663ZM 119.944 26.6899L 118.892 27.7594L 118.892 27.7595L 119.944 26.6899ZM 130.608 91.9139L 131.895 92.6841L 131.921 92.6407L 131.944 92.5956L 130.608 91.9139ZM 85.0486 168.046L 86.3357 168.816L 86.3357 168.816L 85.0486 168.046ZM 75.9525 168.046L 77.2396 167.276L 77.2396 167.276L 75.9525 168.046ZM 120.256 187.204L 120.865 185.833L 120.864 185.833L 120.256 187.204ZM 115.948 187.204L 115.34 185.833L 115.339 185.833L 115.948 187.204ZM 80.4997 202.939L 79.8911 204.31L 80.4997 204.58L 81.1083 204.31L 80.4997 202.939ZM 45.0517 187.204L 45.6603 185.833L 45.6598 185.833L 45.0517 187.204ZM 40.7435 187.204L 40.1353 185.833L 40.1349 185.833L 40.7435 187.204ZM 16.1867 198.105L 14.8313 197.462L 13.0984 201.117L 16.7953 199.476L 16.1867 198.105ZM 37.5407 153.069L 36.9323 151.698L 36.4237 151.924L 36.1853 152.427L 37.5407 153.069ZM 51.0637 147.069L 52.3508 146.299L 51.669 145.159L 50.4553 145.698L 51.0637 147.069ZM 66.8547 173.457L 68.1418 172.686L 68.1418 172.686L 66.8547 173.457ZM 94.143 173.457L 95.4302 174.227L 95.4302 174.227L 94.143 173.457ZM 109.934 147.069L 110.543 145.698L 109.329 145.16L 108.647 146.299L 109.934 147.069ZM 123.458 153.072L 124.814 152.429L 124.575 151.927L 124.067 151.701L 123.458 153.072ZM 144.811 198.105L 144.202 199.476L 147.899 201.118L 146.166 197.463L 144.811 198.105ZM 161.847 205.82L 133.55 146.142L 130.839 147.427L 159.136 207.105L 161.847 205.82ZM 133.55 146.142C 132.841 144.708 131.468 143.423 130.064 142.803L 128.892 145.564C 129.835 145.939 130.419 146.479 130.839 147.427L 133.55 146.142ZM 130.087 142.812L 116.01 136.564L 114.792 139.306L 128.87 145.554L 130.087 142.812ZM 116.688 138.705L 141.08 97.946L 138.506 96.4054L 114.114 137.165L 116.688 138.705ZM 141.082 97.9434C 141.152 97.8255 141.228 97.6876 141.291 97.5677L 138.627 96.1877C 138.584 96.2701 138.551 96.3302 138.504 96.4079L 141.082 97.9434ZM 141.293 97.5633C 146.214 87.9627 148.757 77.4194 148.767 66.5687L 145.767 66.5687C 145.778 77.0653 143.402 86.9181 138.624 96.1921L 141.293 97.5633ZM 148.767 66.5687C 148.767 48.2103 141.543 30.9919 128.433 18.1007L 126.33 20.2398C 138.867 32.568 145.767 49.0161 145.767 66.5687L 148.767 66.5687ZM 128.433 18.1007C 115.326 5.21241 97.9537 -1.75113 79.5338 -1.49308L 79.5758 1.50663C 97.1958 1.25978 113.795 7.91449 126.33 20.2398L 128.433 18.1007ZM 79.534 -1.49308C 61.638 -1.24562 44.786 5.92382 32.0906 18.6854L 34.2174 20.8012C 46.3638 8.59158 62.4688 1.74318 79.5755 1.50663L 79.534 -1.49308ZM 32.0906 18.6854C 19.3963 31.4461 12.3398 48.3076 12.2335 66.1564L 15.2334 66.1743C 15.335 49.1202 22.0723 33.0098 34.2174 20.8011L 32.0906 18.6854ZM 12.2335 66.1564C 12.1794 77.0002 14.7902 87.9697 19.7066 97.5627L 22.375 96.1918C 17.6041 86.9294 15.16 76.6594 15.2334 66.1743L 12.2335 66.1564ZM 19.7078 97.5652C 19.7695 97.6845 19.8466 97.8239 19.9173 97.943L 22.4946 96.4075C 22.4487 96.331 22.416 96.2715 22.3737 96.1894L 19.7078 97.5652ZM 19.9188 97.9455L 44.3104 138.705L 46.8847 137.164L 22.4931 96.405L 19.9188 97.9455ZM 44.9892 136.563L 30.8306 142.846L 32.0474 145.588L 46.2059 139.305L 44.9892 136.563ZM 30.8309 142.846C 29.4401 143.488 28.1255 144.769 27.4488 146.142L 30.1597 147.426C 30.5662 146.513 31.1213 145.973 32.0471 145.588L 30.8309 142.846ZM 27.4488 146.141L -0.846912 205.82L 1.86383 207.105L 30.1596 147.427L 27.4488 146.141ZM -0.846722 205.819C -2.06378 208.384 -1.54965 211.433 0.438727 213.46L 2.58036 211.36C 1.47158 210.229 1.18668 208.532 1.86364 207.105L -0.846722 205.819ZM 0.438585 213.46C 2.4253 215.486 5.46418 216.066 8.05898 214.914L 6.84233 212.172C 5.39004 212.816 3.6901 212.491 2.5805 211.36L 0.438585 213.46ZM 8.05923 214.914L 43.5072 199.179L 42.2901 196.437L 6.84209 212.172L 8.05923 214.914ZM 42.2901 199.179L 77.738 214.914L 78.9552 212.172L 43.5072 196.437L 42.2901 199.179ZM 77.7385 214.914C 79.497 215.694 81.5045 215.694 83.263 214.914L 82.0468 212.172C 81.0627 212.608 79.9388 212.608 78.9547 212.172L 77.7385 214.914ZM 83.2635 214.914L 118.711 199.179L 117.494 196.437L 82.0463 212.172L 83.2635 214.914ZM 117.494 199.179L 152.942 214.914L 154.159 212.172L 118.711 196.437L 117.494 199.179ZM 152.943 214.914C 153.787 215.279 154.826 215.492 155.703 215.5L 155.703 212.5C 155.127 212.508 154.7 212.422 154.159 212.172L 152.943 214.914ZM 155.703 215.5C 157.493 215.5 159.256 214.794 160.563 213.461L 158.421 211.36C 157.692 212.104 156.707 212.5 155.703 212.5L 155.703 215.5ZM 160.563 213.46C 162.55 211.433 163.063 208.385 161.847 205.82L 159.136 207.105C 159.813 208.533 159.529 210.23 158.421 211.361L 160.563 213.46ZM 31.7288 91.2323C 27.7218 83.4004 25.7629 75.1075 25.8265 66.2374L 22.8266 66.2195C 22.7821 75.4458 24.9055 84.4342 29.0564 92.5955L 31.7288 91.2323ZM 25.8265 66.2374C 26.0011 36.785 50.1815 12.4742 79.7231 12.0662L 79.6816 9.06648C 48.5141 9.49693 23.0109 35.1258 22.8266 66.2196L 25.8265 66.2374ZM 79.7224 12.0662C 94.4852 11.8684 108.393 17.4347 118.892 27.7594L 120.996 25.6204C 109.923 14.7316 95.2422 8.858 79.6823 9.06647L 79.7224 12.0662ZM 118.892 27.7595C 129.396 38.0873 135.175 51.8646 135.175 66.5691L 138.175 66.5691C 138.175 51.0587 132.072 36.5111 120.996 25.6203L 118.892 27.7595ZM 135.175 66.5691C 135.186 75.3207 133.227 83.5031 129.272 91.2322L 131.944 92.5956C 136.042 84.5413 138.165 75.6723 138.175 66.5691L 135.175 66.5691ZM 129.321 91.1436L 83.7615 167.276L 86.3357 168.816L 131.895 92.6841L 129.321 91.1436ZM 83.7615 167.276C 82.7697 168.933 81.1872 169.121 80.5005 169.121L 80.5005 172.121C 81.6224 172.121 84.5456 171.807 86.3357 168.816L 83.7615 167.276ZM 80.5005 169.121C 79.8134 169.121 78.2311 168.933 77.2396 167.276L 74.6653 168.816C 76.4549 171.807 79.3784 172.121 80.5005 172.121L 80.5005 169.121ZM 77.2396 167.276L 31.6797 91.1436L 29.1055 92.6842L 74.6653 168.816L 77.2396 167.276ZM 120.864 185.833C 119.106 185.053 117.098 185.053 115.34 185.833L 116.556 188.576C 117.54 188.139 118.664 188.139 119.648 188.576L 120.864 185.833ZM 115.339 185.833L 79.8911 201.568L 81.1083 204.31L 116.556 188.575L 115.339 185.833ZM 81.1083 201.568L 45.6603 185.833L 44.4432 188.575L 79.8911 204.31L 81.1083 201.568ZM 45.6598 185.833C 43.9014 185.053 41.8938 185.053 40.1353 185.833L 41.3516 188.576C 42.3356 188.139 43.4596 188.139 44.4436 188.576L 45.6598 185.833ZM 40.1349 185.833L 15.5781 196.734L 16.7953 199.476L 41.352 188.575L 40.1349 185.833ZM 17.542 198.748L 38.896 153.712L 36.1853 152.427L 14.8313 197.462L 17.542 198.748ZM 38.149 154.44L 51.6721 148.44L 50.4553 145.698L 36.9323 151.698L 38.149 154.44ZM 49.7766 147.839L 65.5675 174.227L 68.1418 172.686L 52.3508 146.299L 49.7766 147.839ZM 65.5675 174.227C 68.7334 179.518 74.3239 182.681 80.4989 182.681L 80.4989 179.681C 75.376 179.681 70.7645 177.069 68.1418 172.686L 65.5675 174.227ZM 80.4989 182.681C 86.6738 182.681 92.2643 179.518 95.4302 174.227L 92.8559 172.687C 90.2333 177.069 85.6217 179.681 80.4989 179.681L 80.4989 182.681ZM 95.4302 174.227L 111.221 147.84L 108.647 146.299L 92.8559 172.687L 95.4302 174.227ZM 109.326 148.44L 122.85 154.443L 124.067 151.701L 110.543 145.698L 109.326 148.44ZM 122.103 153.715L 143.456 198.748L 146.166 197.463L 124.814 152.429L 122.103 153.715ZM 145.42 196.735L 120.865 185.833L 119.647 188.575L 144.202 199.476L 145.42 196.735Z"/>
<path id="path2_fill" d="M 24.1715 9.43899e-07C 10.843 9.43899e-07 5.11737e-07 10.8108 5.11737e-07 24.0992C 5.11737e-07 37.3877 10.843 48.1985 24.1715 48.1985C 37.4996 48.1989 48.3426 37.3877 48.3426 24.0992C 48.3426 10.8108 37.4996 9.43899e-07 24.1715 9.43899e-07ZM 24.1715 37.6381C 16.6839 37.6385 10.5919 31.5654 10.5919 24.0992C 10.5919 16.6339 16.6835 10.5604 24.1715 10.5604C 31.6591 10.5604 37.7507 16.6339 37.7507 24.0992C 37.7507 31.5646 31.6591 37.6381 24.1715 37.6381Z"/>
<path id="path3_stroke_2x" d="M 24.1715 48.1985L 24.1716 46.6985L 24.1715 46.6985L 24.1715 48.1985ZM 24.1715 37.6381L 24.1715 36.1381L 24.1714 36.1381L 24.1715 37.6381ZM 24.1715 -1.5C 10.0188 -1.5 -1.5 9.97811 -1.5 24.0992L 1.5 24.0992C 1.5 11.6434 11.6672 1.5 24.1715 1.5L 24.1715 -1.5ZM -1.5 24.0992C -1.5 38.2204 10.0188 49.6985 24.1715 49.6985L 24.1715 46.6985C 11.6672 46.6985 1.5 36.5551 1.5 24.0992L -1.5 24.0992ZM 24.1715 49.6985C 38.3239 49.6989 49.8426 38.2203 49.8426 24.0992L 46.8426 24.0992C 46.8426 36.5551 36.6754 46.6989 24.1716 46.6985L 24.1715 49.6985ZM 49.8426 24.0992C 49.8426 9.97812 38.3238 -1.5 24.1715 -1.5L 24.1715 1.5C 36.6754 1.5 46.8426 11.6434 46.8426 24.0992L 49.8426 24.0992ZM 24.1714 36.1381C 17.5081 36.1384 12.0919 30.7327 12.0919 24.0992L 9.09188 24.0992C 9.09188 32.3981 15.8598 39.1385 24.1716 39.1381L 24.1714 36.1381ZM 12.0919 24.0992C 12.0919 17.4666 17.5077 12.0604 24.1715 12.0604L 24.1715 9.06039C 15.8593 9.06039 9.09188 15.8012 9.09188 24.0992L 12.0919 24.0992ZM 24.1715 12.0604C 30.8349 12.0604 36.2507 17.4665 36.2507 24.0992L 39.2507 24.0992C 39.2507 15.8013 32.4833 9.06039 24.1715 9.06039L 24.1715 12.0604ZM 36.2507 24.0992C 36.2507 30.7319 30.8349 36.1381 24.1715 36.1381L 24.1715 39.1381C 32.4833 39.1381 39.2507 32.3972 39.2507 24.0992L 36.2507 24.0992Z"/>
</defs>
</svg>
