<svg width="24" height="21" viewBox="0 0 24 21" version="1.1" xmlns="http://www.w3.org/2000/svg" xmlns:xlink="http://www.w3.org/1999/xlink">
<title>icon-camera</title>
<desc>Created using Figma</desc>
<g id="Canvas" transform="translate(-1151 -1329)">
<g id="icon-camera">
<g id="Group">
<g id="x33  13">
<g id="Group">
<g id="Vector">
<use xlink:href="#path0_fill" transform="translate(1151 1329)" fill="#BDBDBD"/>
</g>
</g>
</g>
</g>
</g>
</g>
<defs>
<path id="path0_fill" d="M 22.5 9L 18 12C 18 11.0895 17.586 10.284 16.9455 9.73349C 18.4702 8.81475 19.5 7.15949 19.5 5.25C 19.5 2.35047 17.1495 0 14.25 0C 11.3505 0 9 2.35051 9 5.25C 9 6.72075 9.60823 8.04675 10.5833 9L 7.83224 9C 8.55075 8.20275 9 7.158 9 6C 9 3.51451 6.98549 1.5 4.5 1.5C 2.01451 1.5 0 3.51451 0 6C 0 7.356 0.612745 8.55749 1.56149 9.38251C 0.635255 9.89326 0 10.8675 0 12L 0 18C 0 19.6567 1.34325 21 3 21L 15 21C 16.6567 21 18 19.6567 18 18L 22.5 21C 23.3287 21 24 20.3287 24 19.5L 24 10.5C 24 9.67126 23.3287 9 22.5 9ZM 4.5 9C 2.84325 9 1.5 7.65674 1.5 6C 1.5 4.34326 2.84325 3 4.5 3C 6.15674 3 7.5 4.34326 7.5 6C 7.5 7.65674 6.15674 9 4.5 9ZM 14.25 9.00823C 12.174 9.00823 10.4918 7.32522 10.4918 5.25C 10.4918 3.174 12.1748 1.49176 14.25 1.49176C 16.3252 1.49176 18.0082 3.174 18.0082 5.25C 18.0082 7.326 16.326 9.00823 14.25 9.00823Z"/>
</defs>
</svg>
