<svg width="20" height="20" viewBox="0 0 20 20" version="1.1" xmlns="http://www.w3.org/2000/svg" xmlns:xlink="http://www.w3.org/1999/xlink">
<title>icon-add-white</title>
<desc>Created using Figma</desc>
<g id="Canvas" transform="translate(-5037 193)">
<g id="icon-add-white">
<g id="Group">
<g id="Plus">
<g id="Group">
<g id="Vector">
<use xlink:href="#path0_fill" transform="translate(5037 -193)" fill="#FFFFFF"/>
</g>
</g>
</g>
</g>
</g>
</g>
<defs>
<path id="path0_fill" d="M 18.8405 8.84063L 11.1595 8.84063L 11.1595 1.15978C 11.1595 0.520166 10.6404 0 10 0C 9.35957 0 8.84051 0.520166 8.84051 1.15951L 8.84051 8.84063L 1.15949 8.84063C 0.519339 8.84063 0 9.36079 0 10.0001C 0 10.6417 0.519339 11.1596 1.15949 11.1596L 8.84051 11.1596L 8.84051 18.8405C 8.84051 19.4826 9.35957 20 10 20C 10.6404 20 11.1595 19.4817 11.1595 18.8405L 11.1595 11.1596L 18.8405 11.1596C 19.4812 11.1596 20 10.6414 20 10.0001C 20 9.36079 19.4809 8.84063 18.8405 8.84063Z"/>
</defs>
</svg>
